<?xml version="1.0"?>
<svg xmlns="http://www.w3.org/2000/svg" xmlns:xlink="http://www.w3.org/1999/xlink" viewBox="0 0 782.700000 320.000000" width="391.350000mm" height="160.000000mm" version="1.1">
<rect x="0.000000" y="0.000000" width="781.700000" height="319.000000" rx="0" ry="0" style="stroke:#000000;fill:#FFFFFF;"/>
<text x="10.000000" y="7.000000" font-family="Verdana" font-size="7"></text>
<a xlink:href="input-0x600003f0a490.svg">
<rect x="32.000000" y="148.000000" width="25.800000" height="24.000000" rx="0" ry="0" style="stroke:#000000;fill:#FFFFFF;"/>
</a>
<a xlink:href="input-0x600003f0a490.svg">
<text x="44.900000" y="162.000000" font-family="Verdana" font-size="7" text-anchor="middle" fill="#000000">input</text>
</a>
<circle cx="34.000000" cy="150.000000" r="1"/>
<line x1="29.000000" y1="155.000000" x2="32.000000" y2="156.000000"  transform="rotate(0.000000,32.000000,156.000000)" style="stroke: black; stroke-width:0.25;"/>
<line x1="29.000000" y1="157.000000" x2="32.000000" y2="156.000000"  transform="rotate(0.000000,32.000000,156.000000)" style="stroke: black; stroke-width:0.25;"/>
<line x1="29.000000" y1="163.000000" x2="32.000000" y2="164.000000"  transform="rotate(0.000000,32.000000,164.000000)" style="stroke: black; stroke-width:0.25;"/>
<line x1="29.000000" y1="165.000000" x2="32.000000" y2="164.000000"  transform="rotate(0.000000,32.000000,164.000000)" style="stroke: black; stroke-width:0.25;"/>
<a xlink:href="peakenvelope-0x600003f17840.svg">
<rect x="143.800000" y="152.000000" width="77.400000" height="24.000000" rx="0" ry="0" style="stroke:#000000;fill:#FFFFFF;"/>
</a>
<a xlink:href="peakenvelope-0x600003f17840.svg">
<text x="182.500000" y="166.000000" font-family="Verdana" font-size="7" text-anchor="middle" fill="#000000">peakenvelope(0.1f)</text>
</a>
<circle cx="145.800000" cy="154.000000" r="1"/>
<line x1="140.800000" y1="163.000000" x2="143.800000" y2="164.000000"  transform="rotate(0.000000,143.800000,164.000000)" style="stroke: black; stroke-width:0.25;"/>
<line x1="140.800000" y1="165.000000" x2="143.800000" y2="164.000000"  transform="rotate(0.000000,143.800000,164.000000)" style="stroke: black; stroke-width:0.25;"/>
<a xlink:href="tresh-0x600003f010e0.svg">
<rect x="305.200000" y="160.000000" width="25.800000" height="24.000000" rx="0" ry="0" style="stroke:#000000;fill:#FFFFFF;"/>
</a>
<a xlink:href="tresh-0x600003f010e0.svg">
<text x="318.100000" y="174.000000" font-family="Verdana" font-size="7" text-anchor="middle" fill="#000000">tresh</text>
</a>
<circle cx="307.200000" cy="162.000000" r="1"/>
<rect x="347.000000" y="156.000000" width="24.000000" height="24.000000" rx="0" ry="0" style="stroke:#000000;fill:#FFFFFF;"/>
<text x="359.000000" y="170.000000" font-family="Verdana" font-size="7" text-anchor="middle" fill="#000000">&gt;</text>
<circle cx="349.000000" cy="158.000000" r="1"/>
<line x1="344.000000" y1="163.000000" x2="347.000000" y2="164.000000"  transform="rotate(0.000000,347.000000,164.000000)" style="stroke: black; stroke-width:0.25;"/>
<line x1="344.000000" y1="165.000000" x2="347.000000" y2="164.000000"  transform="rotate(0.000000,347.000000,164.000000)" style="stroke: black; stroke-width:0.25;"/>
<line x1="344.000000" y1="171.000000" x2="347.000000" y2="172.000000"  transform="rotate(0.000000,347.000000,172.000000)" style="stroke: black; stroke-width:0.25;"/>
<line x1="344.000000" y1="173.000000" x2="347.000000" y2="172.000000"  transform="rotate(0.000000,347.000000,172.000000)" style="stroke: black; stroke-width:0.25;"/>
<a xlink:href="line-0x600003f13e70.svg">
<rect x="498.350000" y="48.000000" width="129.000000" height="24.000000" rx="0" ry="0" style="stroke:#000000;fill:#FFFFFF;"/>
</a>
<a xlink:href="line-0x600003f13e70.svg">
<text x="562.850000" y="62.000000" font-family="Verdana" font-size="7" text-anchor="middle" fill="#000000">line((1.92e+0...in),0.1f : *)</text>
</a>
<circle cx="500.350000" cy="50.000000" r="1"/>
<line x1="495.350000" y1="59.000000" x2="498.350000" y2="60.000000"  transform="rotate(0.000000,498.350000,60.000000)" style="stroke: black; stroke-width:0.25;"/>
<line x1="495.350000" y1="61.000000" x2="498.350000" y2="60.000000"  transform="rotate(0.000000,498.350000,60.000000)" style="stroke: black; stroke-width:0.25;"/>
<a xlink:href="break-0x600003f0f840.svg">
<rect x="549.950000" y="80.000000" width="25.800000" height="24.000000" rx="0" ry="0" style="stroke:#000000;fill:#FFFFFF;"/>
</a>
<a xlink:href="break-0x600003f0f840.svg">
<text x="562.850000" y="94.000000" font-family="Verdana" font-size="7" text-anchor="middle" fill="#000000">break</text>
</a>
<circle cx="551.950000" cy="82.000000" r="1"/>
<rect x="643.350000" y="64.000000" width="24.000000" height="24.000000" rx="0" ry="0" style="stroke:#000000;fill:#FFFFFF;"/>
<text x="655.350000" y="78.000000" font-family="Verdana" font-size="7" text-anchor="middle" fill="#000000">/</text>
<circle cx="645.350000" cy="66.000000" r="1"/>
<line x1="640.350000" y1="71.000000" x2="643.350000" y2="72.000000"  transform="rotate(0.000000,643.350000,72.000000)" style="stroke: black; stroke-width:0.25;"/>
<line x1="640.350000" y1="73.000000" x2="643.350000" y2="72.000000"  transform="rotate(0.000000,643.350000,72.000000)" style="stroke: black; stroke-width:0.25;"/>
<line x1="640.350000" y1="79.000000" x2="643.350000" y2="80.000000"  transform="rotate(0.000000,643.350000,80.000000)" style="stroke: black; stroke-width:0.25;"/>
<line x1="640.350000" y1="81.000000" x2="643.350000" y2="80.000000"  transform="rotate(0.000000,643.350000,80.000000)" style="stroke: black; stroke-width:0.25;"/>
<a xlink:href="line-0x600003f13e70.svg">
<rect x="478.350000" y="112.000000" width="129.000000" height="24.000000" rx="0" ry="0" style="stroke:#000000;fill:#FFFFFF;"/>
</a>
<a xlink:href="line-0x600003f13e70.svg">
<text x="542.850000" y="126.000000" font-family="Verdana" font-size="7" text-anchor="middle" fill="#000000">line((1.92e+0...in),0.1f : *)</text>
</a>
<circle cx="480.350000" cy="114.000000" r="1"/>
<line x1="475.350000" y1="123.000000" x2="478.350000" y2="124.000000"  transform="rotate(0.000000,478.350000,124.000000)" style="stroke: black; stroke-width:0.25;"/>
<line x1="475.350000" y1="125.000000" x2="478.350000" y2="124.000000"  transform="rotate(0.000000,478.350000,124.000000)" style="stroke: black; stroke-width:0.25;"/>
<a xlink:href="break-0x600003f0f840.svg">
<rect x="529.950000" y="144.000000" width="25.800000" height="24.000000" rx="0" ry="0" style="stroke:#000000;fill:#FFFFFF;"/>
</a>
<a xlink:href="break-0x600003f0f840.svg">
<text x="542.850000" y="158.000000" font-family="Verdana" font-size="7" text-anchor="middle" fill="#000000">break</text>
</a>
<circle cx="531.950000" cy="146.000000" r="1"/>
<rect x="623.350000" y="128.000000" width="24.000000" height="24.000000" rx="0" ry="0" style="stroke:#000000;fill:#FFFFFF;"/>
<text x="635.350000" y="142.000000" font-family="Verdana" font-size="7" text-anchor="middle" fill="#000000">/</text>
<circle cx="625.350000" cy="130.000000" r="1"/>
<line x1="620.350000" y1="135.000000" x2="623.350000" y2="136.000000"  transform="rotate(0.000000,623.350000,136.000000)" style="stroke: black; stroke-width:0.25;"/>
<line x1="620.350000" y1="137.000000" x2="623.350000" y2="136.000000"  transform="rotate(0.000000,623.350000,136.000000)" style="stroke: black; stroke-width:0.25;"/>
<line x1="620.350000" y1="143.000000" x2="623.350000" y2="144.000000"  transform="rotate(0.000000,623.350000,144.000000)" style="stroke: black; stroke-width:0.25;"/>
<line x1="620.350000" y1="145.000000" x2="623.350000" y2="144.000000"  transform="rotate(0.000000,623.350000,144.000000)" style="stroke: black; stroke-width:0.25;"/>
<rect x="550.850000" y="176.000000" width="24.000000" height="24.000000" rx="0" ry="0" style="stroke:#000000;fill:#FFFFFF;"/>
<text x="562.850000" y="190.000000" font-family="Verdana" font-size="7" text-anchor="middle" fill="#000000">0</text>
<circle cx="552.850000" cy="178.000000" r="1"/>
<rect x="663.350000" y="144.000000" width="24.000000" height="24.000000" rx="0" ry="0" style="stroke:#000000;fill:#FFFFFF;"/>
<text x="675.350000" y="158.000000" font-family="Verdana" font-size="7" text-anchor="middle" fill="#000000">&gt;</text>
<circle cx="665.350000" cy="146.000000" r="1"/>
<line x1="660.350000" y1="151.000000" x2="663.350000" y2="152.000000"  transform="rotate(0.000000,663.350000,152.000000)" style="stroke: black; stroke-width:0.25;"/>
<line x1="660.350000" y1="153.000000" x2="663.350000" y2="152.000000"  transform="rotate(0.000000,663.350000,152.000000)" style="stroke: black; stroke-width:0.25;"/>
<line x1="660.350000" y1="159.000000" x2="663.350000" y2="160.000000"  transform="rotate(0.000000,663.350000,160.000000)" style="stroke: black; stroke-width:0.25;"/>
<line x1="660.350000" y1="161.000000" x2="663.350000" y2="160.000000"  transform="rotate(0.000000,663.350000,160.000000)" style="stroke: black; stroke-width:0.25;"/>
<a xlink:href="line-0x600003f13e70.svg">
<rect x="455.000000" y="208.000000" width="129.000000" height="24.000000" rx="0" ry="0" style="stroke:#000000;fill:#FFFFFF;"/>
</a>
<a xlink:href="line-0x600003f13e70.svg">
<text x="519.500000" y="222.000000" font-family="Verdana" font-size="7" text-anchor="middle" fill="#000000">line((1.92e+0...in),0.1f : *)</text>
</a>
<circle cx="457.000000" cy="210.000000" r="1"/>
<line x1="452.000000" y1="219.000000" x2="455.000000" y2="220.000000"  transform="rotate(0.000000,455.000000,220.000000)" style="stroke: black; stroke-width:0.25;"/>
<line x1="452.000000" y1="221.000000" x2="455.000000" y2="220.000000"  transform="rotate(0.000000,455.000000,220.000000)" style="stroke: black; stroke-width:0.25;"/>
<a xlink:href="break-0x600003f0f840.svg">
<rect x="506.600000" y="240.000000" width="25.800000" height="24.000000" rx="0" ry="0" style="stroke:#000000;fill:#FFFFFF;"/>
</a>
<a xlink:href="break-0x600003f0f840.svg">
<text x="519.500000" y="254.000000" font-family="Verdana" font-size="7" text-anchor="middle" fill="#000000">break</text>
</a>
<circle cx="508.600000" cy="242.000000" r="1"/>
<rect x="600.000000" y="224.000000" width="24.000000" height="24.000000" rx="0" ry="0" style="stroke:#000000;fill:#FFFFFF;"/>
<text x="612.000000" y="238.000000" font-family="Verdana" font-size="7" text-anchor="middle" fill="#000000">/</text>
<circle cx="602.000000" cy="226.000000" r="1"/>
<line x1="597.000000" y1="231.000000" x2="600.000000" y2="232.000000"  transform="rotate(0.000000,600.000000,232.000000)" style="stroke: black; stroke-width:0.25;"/>
<line x1="597.000000" y1="233.000000" x2="600.000000" y2="232.000000"  transform="rotate(0.000000,600.000000,232.000000)" style="stroke: black; stroke-width:0.25;"/>
<line x1="597.000000" y1="239.000000" x2="600.000000" y2="240.000000"  transform="rotate(0.000000,600.000000,240.000000)" style="stroke: black; stroke-width:0.25;"/>
<line x1="597.000000" y1="241.000000" x2="600.000000" y2="240.000000"  transform="rotate(0.000000,600.000000,240.000000)" style="stroke: black; stroke-width:0.25;"/>
<rect x="527.500000" y="272.000000" width="24.000000" height="24.000000" rx="0" ry="0" style="stroke:#000000;fill:#FFFFFF;"/>
<text x="539.500000" y="286.000000" font-family="Verdana" font-size="7" text-anchor="middle" fill="#000000">0</text>
<circle cx="529.500000" cy="274.000000" r="1"/>
<rect x="640.000000" y="240.000000" width="24.000000" height="24.000000" rx="0" ry="0" style="stroke:#000000;fill:#FFFFFF;"/>
<text x="652.000000" y="254.000000" font-family="Verdana" font-size="7" text-anchor="middle" fill="#000000">&gt;</text>
<circle cx="642.000000" cy="242.000000" r="1"/>
<line x1="637.000000" y1="247.000000" x2="640.000000" y2="248.000000"  transform="rotate(0.000000,640.000000,248.000000)" style="stroke: black; stroke-width:0.25;"/>
<line x1="637.000000" y1="249.000000" x2="640.000000" y2="248.000000"  transform="rotate(0.000000,640.000000,248.000000)" style="stroke: black; stroke-width:0.25;"/>
<line x1="637.000000" y1="255.000000" x2="640.000000" y2="256.000000"  transform="rotate(0.000000,640.000000,256.000000)" style="stroke: black; stroke-width:0.25;"/>
<line x1="637.000000" y1="257.000000" x2="640.000000" y2="256.000000"  transform="rotate(0.000000,640.000000,256.000000)" style="stroke: black; stroke-width:0.25;"/>
<a xlink:href="diffTresh-0x600003f1cab0.svg">
<rect x="672.000000" y="240.000000" width="38.700000" height="24.000000" rx="0" ry="0" style="stroke:#000000;fill:#FFFFFF;"/>
</a>
<a xlink:href="diffTresh-0x600003f1cab0.svg">
<text x="691.350000" y="254.000000" font-family="Verdana" font-size="7" text-anchor="middle" fill="#000000">diffTresh</text>
</a>
<circle cx="674.000000" cy="242.000000" r="1"/>
<line x1="669.000000" y1="251.000000" x2="672.000000" y2="252.000000"  transform="rotate(0.000000,672.000000,252.000000)" style="stroke: black; stroke-width:0.25;"/>
<line x1="669.000000" y1="253.000000" x2="672.000000" y2="252.000000"  transform="rotate(0.000000,672.000000,252.000000)" style="stroke: black; stroke-width:0.25;"/>
<line x1="15.000000" y1="15.000000" x2="15.000000" y2="305.000000"  style="stroke: black; stroke-linecap:round; stroke-width:0.25; stroke-dasharray:3,3;"/>
<line x1="15.000000" y1="305.000000" x2="767.700000" y2="305.000000"  style="stroke: black; stroke-linecap:round; stroke-width:0.25; stroke-dasharray:3,3;"/>
<line x1="767.700000" y1="305.000000" x2="767.700000" y2="15.000000"  style="stroke: black; stroke-linecap:round; stroke-width:0.25; stroke-dasharray:3,3;"/>
<line x1="15.000000" y1="15.000000" x2="20.000000" y2="15.000000"  style="stroke: black; stroke-linecap:round; stroke-width:0.25; stroke-dasharray:3,3;"/>
<line x1="49.025000" y1="15.000000" x2="767.700000" y2="15.000000"  style="stroke: black; stroke-linecap:round; stroke-width:0.25; stroke-dasharray:3,3;"/>
<text x="20.000000" y="17.000000" font-family="Verdana" font-size="7">process</text>
<line x1="769.700000" y1="139.000000" x2="772.700000" y2="140.000000"  transform="rotate(0.000000,772.700000,140.000000)" style="stroke: black; stroke-width:0.25;"/>
<line x1="769.700000" y1="141.000000" x2="772.700000" y2="140.000000"  transform="rotate(0.000000,772.700000,140.000000)" style="stroke: black; stroke-width:0.25;"/>
<line x1="769.700000" y1="147.000000" x2="772.700000" y2="148.000000"  transform="rotate(0.000000,772.700000,148.000000)" style="stroke: black; stroke-width:0.25;"/>
<line x1="769.700000" y1="149.000000" x2="772.700000" y2="148.000000"  transform="rotate(0.000000,772.700000,148.000000)" style="stroke: black; stroke-width:0.25;"/>
<line x1="769.700000" y1="155.000000" x2="772.700000" y2="156.000000"  transform="rotate(0.000000,772.700000,156.000000)" style="stroke: black; stroke-width:0.25;"/>
<line x1="769.700000" y1="157.000000" x2="772.700000" y2="156.000000"  transform="rotate(0.000000,772.700000,156.000000)" style="stroke: black; stroke-width:0.25;"/>
<line x1="769.700000" y1="163.000000" x2="772.700000" y2="164.000000"  transform="rotate(0.000000,772.700000,164.000000)" style="stroke: black; stroke-width:0.25;"/>
<line x1="769.700000" y1="165.000000" x2="772.700000" y2="164.000000"  transform="rotate(0.000000,772.700000,164.000000)" style="stroke: black; stroke-width:0.25;"/>
<line x1="769.700000" y1="171.000000" x2="772.700000" y2="172.000000"  transform="rotate(0.000000,772.700000,172.000000)" style="stroke: black; stroke-width:0.25;"/>
<line x1="769.700000" y1="173.000000" x2="772.700000" y2="172.000000"  transform="rotate(0.000000,772.700000,172.000000)" style="stroke: black; stroke-width:0.25;"/>
<line x1="769.700000" y1="179.000000" x2="772.700000" y2="180.000000"  transform="rotate(0.000000,772.700000,180.000000)" style="stroke: black; stroke-width:0.25;"/>
<line x1="769.700000" y1="181.000000" x2="772.700000" y2="180.000000"  transform="rotate(0.000000,772.700000,180.000000)" style="stroke: black; stroke-width:0.25;"/>
<line x1="10.000000" y1="156.000000" x2="20.000000" y2="156.000000"  style="stroke:black; stroke-linecap:round; stroke-width:0.25;"/>
<line x1="10.000000" y1="164.000000" x2="20.000000" y2="164.000000"  style="stroke:black; stroke-linecap:round; stroke-width:0.25;"/>
<line x1="20.000000" y1="156.000000" x2="24.000000" y2="156.000000"  style="stroke:black; stroke-linecap:round; stroke-width:0.25;"/>
<line x1="20.000000" y1="164.000000" x2="24.000000" y2="164.000000"  style="stroke:black; stroke-linecap:round; stroke-width:0.25;"/>
<line x1="24.000000" y1="156.000000" x2="28.000000" y2="156.000000"  style="stroke:black; stroke-linecap:round; stroke-width:0.25;"/>
<line x1="24.000000" y1="164.000000" x2="28.000000" y2="164.000000"  style="stroke:black; stroke-linecap:round; stroke-width:0.25;"/>
<line x1="28.000000" y1="156.000000" x2="28.000000" y2="156.000000"  style="stroke:black; stroke-linecap:round; stroke-width:0.25;"/>
<line x1="28.000000" y1="156.000000" x2="32.000000" y2="156.000000"  style="stroke:black; stroke-linecap:round; stroke-width:0.25;"/>
<line x1="28.000000" y1="164.000000" x2="28.000000" y2="164.000000"  style="stroke:black; stroke-linecap:round; stroke-width:0.25;"/>
<line x1="28.000000" y1="164.000000" x2="32.000000" y2="164.000000"  style="stroke:black; stroke-linecap:round; stroke-width:0.25;"/>
<line x1="57.800000" y1="160.000000" x2="61.800000" y2="160.000000"  style="stroke:black; stroke-linecap:round; stroke-width:0.25;"/>
<line x1="61.800000" y1="160.000000" x2="139.800000" y2="24.000000"  style="stroke:black; stroke-linecap:round; stroke-width:0.25;"/>
<line x1="61.800000" y1="160.000000" x2="139.800000" y2="164.000000"  style="stroke:black; stroke-linecap:round; stroke-width:0.25;"/>
<line x1="139.800000" y1="24.000000" x2="427.250000" y2="24.000000"  style="stroke:black; stroke-linecap:round; stroke-width:0.25;"/>
<line x1="139.800000" y1="164.000000" x2="143.800000" y2="164.000000"  style="stroke:black; stroke-linecap:round; stroke-width:0.25;"/>
<line x1="221.200000" y1="164.000000" x2="225.200000" y2="164.000000"  style="stroke:black; stroke-linecap:round; stroke-width:0.25;"/>
<line x1="225.200000" y1="164.000000" x2="301.200000" y2="32.000000"  style="stroke:black; stroke-linecap:round; stroke-width:0.25;"/>
<line x1="225.200000" y1="164.000000" x2="301.200000" y2="152.000000"  style="stroke:black; stroke-linecap:round; stroke-width:0.25;"/>
<line x1="301.200000" y1="32.000000" x2="507.950000" y2="32.000000"  style="stroke:black; stroke-linecap:round; stroke-width:0.25;"/>
<line x1="301.200000" y1="152.000000" x2="318.100000" y2="152.000000"  style="stroke:black; stroke-linecap:round; stroke-width:0.25;"/>
<line x1="318.100000" y1="152.000000" x2="335.000000" y2="152.000000"  style="stroke:black; stroke-linecap:round; stroke-width:0.25;"/>
<line x1="331.000000" y1="172.000000" x2="335.000000" y2="172.000000"  style="stroke:black; stroke-linecap:round; stroke-width:0.25;"/>
<line x1="335.000000" y1="152.000000" x2="343.000000" y2="152.000000"  style="stroke:black; stroke-linecap:round; stroke-width:0.25;"/>
<line x1="335.000000" y1="172.000000" x2="343.000000" y2="172.000000"  style="stroke:black; stroke-linecap:round; stroke-width:0.25;"/>
<line x1="343.000000" y1="152.000000" x2="343.000000" y2="164.000000"  style="stroke:black; stroke-linecap:round; stroke-width:0.25;"/>
<line x1="343.000000" y1="164.000000" x2="343.000000" y2="164.000000"  style="stroke:black; stroke-linecap:round; stroke-width:0.25;"/>
<line x1="343.000000" y1="164.000000" x2="347.000000" y2="164.000000"  style="stroke:black; stroke-linecap:round; stroke-width:0.25;"/>
<line x1="343.000000" y1="172.000000" x2="347.000000" y2="172.000000"  style="stroke:black; stroke-linecap:round; stroke-width:0.25;"/>
<line x1="371.000000" y1="168.000000" x2="375.000000" y2="168.000000"  style="stroke:black; stroke-linecap:round; stroke-width:0.25;"/>
<line x1="375.000000" y1="168.000000" x2="451.000000" y2="40.000000"  style="stroke:black; stroke-linecap:round; stroke-width:0.25;"/>
<line x1="375.000000" y1="168.000000" x2="451.000000" y2="60.000000"  style="stroke:black; stroke-linecap:round; stroke-width:0.25;"/>
<line x1="375.000000" y1="168.000000" x2="451.000000" y2="124.000000"  style="stroke:black; stroke-linecap:round; stroke-width:0.25;"/>
<line x1="375.000000" y1="168.000000" x2="451.000000" y2="220.000000"  style="stroke:black; stroke-linecap:round; stroke-width:0.25;"/>
<line x1="427.250000" y1="24.000000" x2="714.700000" y2="24.000000"  style="stroke:black; stroke-linecap:round; stroke-width:0.25;"/>
<line x1="451.000000" y1="40.000000" x2="582.850000" y2="40.000000"  style="stroke:black; stroke-linecap:round; stroke-width:0.25;"/>
<line x1="451.000000" y1="60.000000" x2="494.350000" y2="60.000000"  style="stroke:black; stroke-linecap:round; stroke-width:0.25;"/>
<line x1="451.000000" y1="124.000000" x2="474.350000" y2="124.000000"  style="stroke:black; stroke-linecap:round; stroke-width:0.25;"/>
<line x1="451.000000" y1="220.000000" x2="455.000000" y2="220.000000"  style="stroke:black; stroke-linecap:round; stroke-width:0.25;"/>
<line x1="474.350000" y1="124.000000" x2="478.350000" y2="124.000000"  style="stroke:black; stroke-linecap:round; stroke-width:0.25;"/>
<line x1="494.350000" y1="60.000000" x2="498.350000" y2="60.000000"  style="stroke:black; stroke-linecap:round; stroke-width:0.25;"/>
<line x1="507.950000" y1="32.000000" x2="714.700000" y2="32.000000"  style="stroke:black; stroke-linecap:round; stroke-width:0.25;"/>
<line x1="532.400000" y1="252.000000" x2="536.400000" y2="252.000000"  style="stroke:black; stroke-linecap:round; stroke-width:0.25;"/>
<line x1="536.400000" y1="252.000000" x2="588.000000" y2="252.000000"  style="stroke:black; stroke-linecap:round; stroke-width:0.25;"/>
<line x1="551.500000" y1="284.000000" x2="555.500000" y2="284.000000"  style="stroke:black; stroke-linecap:round; stroke-width:0.25;"/>
<line x1="555.500000" y1="284.000000" x2="628.000000" y2="284.000000"  style="stroke:black; stroke-linecap:round; stroke-width:0.25;"/>
<line x1="555.750000" y1="156.000000" x2="559.750000" y2="156.000000"  style="stroke:black; stroke-linecap:round; stroke-width:0.25;"/>
<line x1="559.750000" y1="156.000000" x2="611.350000" y2="156.000000"  style="stroke:black; stroke-linecap:round; stroke-width:0.25;"/>
<line x1="574.850000" y1="188.000000" x2="578.850000" y2="188.000000"  style="stroke:black; stroke-linecap:round; stroke-width:0.25;"/>
<line x1="575.750000" y1="92.000000" x2="579.750000" y2="92.000000"  style="stroke:black; stroke-linecap:round; stroke-width:0.25;"/>
<line x1="578.850000" y1="188.000000" x2="651.350000" y2="188.000000"  style="stroke:black; stroke-linecap:round; stroke-width:0.25;"/>
<line x1="579.750000" y1="92.000000" x2="631.350000" y2="92.000000"  style="stroke:black; stroke-linecap:round; stroke-width:0.25;"/>
<line x1="582.850000" y1="40.000000" x2="714.700000" y2="40.000000"  style="stroke:black; stroke-linecap:round; stroke-width:0.25;"/>
<line x1="584.000000" y1="220.000000" x2="588.000000" y2="220.000000"  style="stroke:black; stroke-linecap:round; stroke-width:0.25;"/>
<line x1="588.000000" y1="220.000000" x2="596.000000" y2="220.000000"  style="stroke:black; stroke-linecap:round; stroke-width:0.25;"/>
<line x1="588.000000" y1="240.000000" x2="596.000000" y2="240.000000"  style="stroke:black; stroke-linecap:round; stroke-width:0.25;"/>
<line x1="588.000000" y1="252.000000" x2="588.000000" y2="240.000000"  style="stroke:black; stroke-linecap:round; stroke-width:0.25;"/>
<line x1="588.000000" y1="252.000000" x2="588.000000" y2="252.000000"  style="stroke:black; stroke-linecap:round; stroke-width:0.25;"/>
<line x1="596.000000" y1="220.000000" x2="596.000000" y2="232.000000"  style="stroke:black; stroke-linecap:round; stroke-width:0.25;"/>
<line x1="596.000000" y1="232.000000" x2="596.000000" y2="232.000000"  style="stroke:black; stroke-linecap:round; stroke-width:0.25;"/>
<line x1="596.000000" y1="232.000000" x2="600.000000" y2="232.000000"  style="stroke:black; stroke-linecap:round; stroke-width:0.25;"/>
<line x1="596.000000" y1="240.000000" x2="600.000000" y2="240.000000"  style="stroke:black; stroke-linecap:round; stroke-width:0.25;"/>
<line x1="607.350000" y1="124.000000" x2="611.350000" y2="124.000000"  style="stroke:black; stroke-linecap:round; stroke-width:0.25;"/>
<line x1="611.350000" y1="124.000000" x2="619.350000" y2="124.000000"  style="stroke:black; stroke-linecap:round; stroke-width:0.25;"/>
<line x1="611.350000" y1="144.000000" x2="619.350000" y2="144.000000"  style="stroke:black; stroke-linecap:round; stroke-width:0.25;"/>
<line x1="611.350000" y1="156.000000" x2="611.350000" y2="144.000000"  style="stroke:black; stroke-linecap:round; stroke-width:0.25;"/>
<line x1="611.350000" y1="156.000000" x2="611.350000" y2="156.000000"  style="stroke:black; stroke-linecap:round; stroke-width:0.25;"/>
<line x1="619.350000" y1="124.000000" x2="619.350000" y2="136.000000"  style="stroke:black; stroke-linecap:round; stroke-width:0.25;"/>
<line x1="619.350000" y1="136.000000" x2="619.350000" y2="136.000000"  style="stroke:black; stroke-linecap:round; stroke-width:0.25;"/>
<line x1="619.350000" y1="136.000000" x2="623.350000" y2="136.000000"  style="stroke:black; stroke-linecap:round; stroke-width:0.25;"/>
<line x1="619.350000" y1="144.000000" x2="623.350000" y2="144.000000"  style="stroke:black; stroke-linecap:round; stroke-width:0.25;"/>
<line x1="624.000000" y1="236.000000" x2="628.000000" y2="236.000000"  style="stroke:black; stroke-linecap:round; stroke-width:0.25;"/>
<line x1="627.350000" y1="60.000000" x2="631.350000" y2="60.000000"  style="stroke:black; stroke-linecap:round; stroke-width:0.25;"/>
<line x1="628.000000" y1="236.000000" x2="636.000000" y2="236.000000"  style="stroke:black; stroke-linecap:round; stroke-width:0.25;"/>
<line x1="628.000000" y1="256.000000" x2="636.000000" y2="256.000000"  style="stroke:black; stroke-linecap:round; stroke-width:0.25;"/>
<line x1="628.000000" y1="284.000000" x2="628.000000" y2="256.000000"  style="stroke:black; stroke-linecap:round; stroke-width:0.25;"/>
<line x1="628.000000" y1="284.000000" x2="628.000000" y2="284.000000"  style="stroke:black; stroke-linecap:round; stroke-width:0.25;"/>
<line x1="631.350000" y1="60.000000" x2="639.350000" y2="60.000000"  style="stroke:black; stroke-linecap:round; stroke-width:0.25;"/>
<line x1="631.350000" y1="80.000000" x2="639.350000" y2="80.000000"  style="stroke:black; stroke-linecap:round; stroke-width:0.25;"/>
<line x1="631.350000" y1="92.000000" x2="631.350000" y2="80.000000"  style="stroke:black; stroke-linecap:round; stroke-width:0.25;"/>
<line x1="631.350000" y1="92.000000" x2="631.350000" y2="92.000000"  style="stroke:black; stroke-linecap:round; stroke-width:0.25;"/>
<line x1="636.000000" y1="236.000000" x2="636.000000" y2="248.000000"  style="stroke:black; stroke-linecap:round; stroke-width:0.25;"/>
<line x1="636.000000" y1="248.000000" x2="636.000000" y2="248.000000"  style="stroke:black; stroke-linecap:round; stroke-width:0.25;"/>
<line x1="636.000000" y1="248.000000" x2="640.000000" y2="248.000000"  style="stroke:black; stroke-linecap:round; stroke-width:0.25;"/>
<line x1="636.000000" y1="256.000000" x2="640.000000" y2="256.000000"  style="stroke:black; stroke-linecap:round; stroke-width:0.25;"/>
<line x1="639.350000" y1="60.000000" x2="639.350000" y2="72.000000"  style="stroke:black; stroke-linecap:round; stroke-width:0.25;"/>
<line x1="639.350000" y1="72.000000" x2="639.350000" y2="72.000000"  style="stroke:black; stroke-linecap:round; stroke-width:0.25;"/>
<line x1="639.350000" y1="72.000000" x2="643.350000" y2="72.000000"  style="stroke:black; stroke-linecap:round; stroke-width:0.25;"/>
<line x1="639.350000" y1="80.000000" x2="643.350000" y2="80.000000"  style="stroke:black; stroke-linecap:round; stroke-width:0.25;"/>
<line x1="647.350000" y1="140.000000" x2="651.350000" y2="140.000000"  style="stroke:black; stroke-linecap:round; stroke-width:0.25;"/>
<line x1="651.350000" y1="140.000000" x2="659.350000" y2="140.000000"  style="stroke:black; stroke-linecap:round; stroke-width:0.25;"/>
<line x1="651.350000" y1="160.000000" x2="659.350000" y2="160.000000"  style="stroke:black; stroke-linecap:round; stroke-width:0.25;"/>
<line x1="651.350000" y1="188.000000" x2="651.350000" y2="160.000000"  style="stroke:black; stroke-linecap:round; stroke-width:0.25;"/>
<line x1="651.350000" y1="188.000000" x2="651.350000" y2="188.000000"  style="stroke:black; stroke-linecap:round; stroke-width:0.25;"/>
<line x1="659.350000" y1="140.000000" x2="659.350000" y2="152.000000"  style="stroke:black; stroke-linecap:round; stroke-width:0.25;"/>
<line x1="659.350000" y1="152.000000" x2="659.350000" y2="152.000000"  style="stroke:black; stroke-linecap:round; stroke-width:0.25;"/>
<line x1="659.350000" y1="152.000000" x2="663.350000" y2="152.000000"  style="stroke:black; stroke-linecap:round; stroke-width:0.25;"/>
<line x1="659.350000" y1="160.000000" x2="663.350000" y2="160.000000"  style="stroke:black; stroke-linecap:round; stroke-width:0.25;"/>
<line x1="664.000000" y1="252.000000" x2="668.000000" y2="252.000000"  style="stroke:black; stroke-linecap:round; stroke-width:0.25;"/>
<line x1="667.350000" y1="76.000000" x2="671.350000" y2="76.000000"  style="stroke:black; stroke-linecap:round; stroke-width:0.25;"/>
<line x1="668.000000" y1="252.000000" x2="668.000000" y2="252.000000"  style="stroke:black; stroke-linecap:round; stroke-width:0.25;"/>
<line x1="668.000000" y1="252.000000" x2="672.000000" y2="252.000000"  style="stroke:black; stroke-linecap:round; stroke-width:0.25;"/>
<line x1="671.350000" y1="76.000000" x2="714.700000" y2="76.000000"  style="stroke:black; stroke-linecap:round; stroke-width:0.25;"/>
<line x1="687.350000" y1="156.000000" x2="691.350000" y2="156.000000"  style="stroke:black; stroke-linecap:round; stroke-width:0.25;"/>
<line x1="691.350000" y1="156.000000" x2="714.700000" y2="156.000000"  style="stroke:black; stroke-linecap:round; stroke-width:0.25;"/>
<line x1="710.700000" y1="252.000000" x2="714.700000" y2="252.000000"  style="stroke:black; stroke-linecap:round; stroke-width:0.25;"/>
<line x1="714.700000" y1="24.000000" x2="754.700000" y2="24.000000"  style="stroke:black; stroke-linecap:round; stroke-width:0.25;"/>
<line x1="714.700000" y1="32.000000" x2="746.700000" y2="32.000000"  style="stroke:black; stroke-linecap:round; stroke-width:0.25;"/>
<line x1="714.700000" y1="40.000000" x2="738.700000" y2="40.000000"  style="stroke:black; stroke-linecap:round; stroke-width:0.25;"/>
<line x1="714.700000" y1="76.000000" x2="730.700000" y2="76.000000"  style="stroke:black; stroke-linecap:round; stroke-width:0.25;"/>
<line x1="714.700000" y1="156.000000" x2="722.700000" y2="156.000000"  style="stroke:black; stroke-linecap:round; stroke-width:0.25;"/>
<line x1="714.700000" y1="180.000000" x2="754.700000" y2="180.000000"  style="stroke:black; stroke-linecap:round; stroke-width:0.25;"/>
<line x1="714.700000" y1="252.000000" x2="714.700000" y2="180.000000"  style="stroke:black; stroke-linecap:round; stroke-width:0.25;"/>
<line x1="714.700000" y1="252.000000" x2="714.700000" y2="252.000000"  style="stroke:black; stroke-linecap:round; stroke-width:0.25;"/>
<line x1="722.700000" y1="156.000000" x2="722.700000" y2="172.000000"  style="stroke:black; stroke-linecap:round; stroke-width:0.25;"/>
<line x1="722.700000" y1="172.000000" x2="754.700000" y2="172.000000"  style="stroke:black; stroke-linecap:round; stroke-width:0.25;"/>
<line x1="730.700000" y1="76.000000" x2="730.700000" y2="164.000000"  style="stroke:black; stroke-linecap:round; stroke-width:0.25;"/>
<line x1="730.700000" y1="164.000000" x2="754.700000" y2="164.000000"  style="stroke:black; stroke-linecap:round; stroke-width:0.25;"/>
<line x1="738.700000" y1="40.000000" x2="738.700000" y2="156.000000"  style="stroke:black; stroke-linecap:round; stroke-width:0.25;"/>
<line x1="738.700000" y1="156.000000" x2="754.700000" y2="156.000000"  style="stroke:black; stroke-linecap:round; stroke-width:0.25;"/>
<line x1="746.700000" y1="32.000000" x2="746.700000" y2="148.000000"  style="stroke:black; stroke-linecap:round; stroke-width:0.25;"/>
<line x1="746.700000" y1="148.000000" x2="754.700000" y2="148.000000"  style="stroke:black; stroke-linecap:round; stroke-width:0.25;"/>
<line x1="754.700000" y1="140.000000" x2="758.700000" y2="140.000000"  style="stroke:black; stroke-linecap:round; stroke-width:0.25;"/>
<line x1="754.700000" y1="148.000000" x2="758.700000" y2="148.000000"  style="stroke:black; stroke-linecap:round; stroke-width:0.25;"/>
<line x1="754.700000" y1="156.000000" x2="758.700000" y2="156.000000"  style="stroke:black; stroke-linecap:round; stroke-width:0.25;"/>
<line x1="754.700000" y1="164.000000" x2="758.700000" y2="164.000000"  style="stroke:black; stroke-linecap:round; stroke-width:0.25;"/>
<line x1="754.700000" y1="172.000000" x2="758.700000" y2="172.000000"  style="stroke:black; stroke-linecap:round; stroke-width:0.25;"/>
<line x1="754.700000" y1="180.000000" x2="758.700000" y2="180.000000"  style="stroke:black; stroke-linecap:round; stroke-width:0.25;"/>
<line x1="754.700000" y1="24.000000" x2="754.700000" y2="140.000000"  style="stroke:black; stroke-linecap:round; stroke-width:0.25;"/>
<line x1="754.700000" y1="140.000000" x2="754.700000" y2="140.000000"  style="stroke:black; stroke-linecap:round; stroke-width:0.25;"/>
<line x1="758.700000" y1="140.000000" x2="762.700000" y2="140.000000"  style="stroke:black; stroke-linecap:round; stroke-width:0.25;"/>
<line x1="758.700000" y1="148.000000" x2="762.700000" y2="148.000000"  style="stroke:black; stroke-linecap:round; stroke-width:0.25;"/>
<line x1="758.700000" y1="156.000000" x2="762.700000" y2="156.000000"  style="stroke:black; stroke-linecap:round; stroke-width:0.25;"/>
<line x1="758.700000" y1="164.000000" x2="762.700000" y2="164.000000"  style="stroke:black; stroke-linecap:round; stroke-width:0.25;"/>
<line x1="758.700000" y1="172.000000" x2="762.700000" y2="172.000000"  style="stroke:black; stroke-linecap:round; stroke-width:0.25;"/>
<line x1="758.700000" y1="180.000000" x2="762.700000" y2="180.000000"  style="stroke:black; stroke-linecap:round; stroke-width:0.25;"/>
<line x1="762.700000" y1="140.000000" x2="772.700000" y2="140.000000"  style="stroke:black; stroke-linecap:round; stroke-width:0.25;"/>
<line x1="762.700000" y1="148.000000" x2="772.700000" y2="148.000000"  style="stroke:black; stroke-linecap:round; stroke-width:0.25;"/>
<line x1="762.700000" y1="156.000000" x2="772.700000" y2="156.000000"  style="stroke:black; stroke-linecap:round; stroke-width:0.25;"/>
<line x1="762.700000" y1="164.000000" x2="772.700000" y2="164.000000"  style="stroke:black; stroke-linecap:round; stroke-width:0.25;"/>
<line x1="762.700000" y1="172.000000" x2="772.700000" y2="172.000000"  style="stroke:black; stroke-linecap:round; stroke-width:0.25;"/>
<line x1="762.700000" y1="180.000000" x2="772.700000" y2="180.000000"  style="stroke:black; stroke-linecap:round; stroke-width:0.25;"/>
</svg>
