<?xml version="1.0"?>
<svg xmlns="http://www.w3.org/2000/svg" xmlns:xlink="http://www.w3.org/1999/xlink" viewBox="0 0 296.100000 156.000000" width="148.050000mm" height="78.000000mm" version="1.1">
<a xlink:href="input-0x600001d33690.svg">
<rect x="0.000000" y="0.000000" width="295.100000" height="155.000000" rx="0" ry="0" style="stroke:#000000;fill:#FFFFFF;"/>
</a>
<text x="10.000000" y="7.000000" font-family="Verdana" font-size="7"></text>
<rect x="32.000000" y="66.000000" width="25.800000" height="24.000000" rx="0" ry="0" style="stroke:#000000;fill:#FFFFFF;"/>
<text x="44.900000" y="80.000000" font-family="Verdana" font-size="7" text-anchor="middle" fill="#000000">[1] g</text>
<circle cx="34.000000" cy="68.000000" r="1"/>
<line x1="29.000000" y1="77.000000" x2="32.000000" y2="78.000000"  transform="rotate(0.000000,32.000000,78.000000)" style="stroke: black; stroke-width:0.25;"/>
<line x1="29.000000" y1="79.000000" x2="32.000000" y2="78.000000"  transform="rotate(0.000000,32.000000,78.000000)" style="stroke: black; stroke-width:0.25;"/>
<rect x="132.050000" y="24.000000" width="25.800000" height="24.000000" rx="0" ry="0" style="stroke:#000000;fill:#FFFFFF;"/>
<text x="144.950000" y="38.000000" font-family="Verdana" font-size="7" text-anchor="middle" fill="#000000">2e+01f</text>
<circle cx="134.050000" cy="26.000000" r="1"/>
<rect x="75.800000" y="66.000000" width="64.500000" height="24.000000" rx="0" ry="0" style="stroke:#000000;fill:#FFFFFF;"/>
<text x="108.050000" y="80.000000" font-family="Verdana" font-size="7" text-anchor="middle" fill="#000000">1.1754944e-38f</text>
<circle cx="77.800000" cy="68.000000" r="1"/>
<line x1="66.800000" y1="57.000000" x2="66.800000" y2="99.000000"  style="stroke: black; stroke-linecap:round; stroke-width:0.25; stroke-dasharray:3,3;"/>
<line x1="66.800000" y1="99.000000" x2="149.300000" y2="99.000000"  style="stroke: black; stroke-linecap:round; stroke-width:0.25; stroke-dasharray:3,3;"/>
<line x1="149.300000" y1="99.000000" x2="149.300000" y2="57.000000"  style="stroke: black; stroke-linecap:round; stroke-width:0.25; stroke-dasharray:3,3;"/>
<line x1="66.800000" y1="57.000000" x2="71.800000" y2="57.000000"  style="stroke: black; stroke-linecap:round; stroke-width:0.25; stroke-dasharray:3,3;"/>
<line x1="87.925000" y1="57.000000" x2="149.300000" y2="57.000000"  style="stroke: black; stroke-linecap:round; stroke-width:0.25; stroke-dasharray:3,3;"/>
<text x="71.800000" y="59.000000" font-family="Verdana" font-size="7">MIN</text>
<rect x="95.150000" y="108.000000" width="25.800000" height="24.000000" rx="0" ry="0" style="stroke:#000000;fill:#FFFFFF;"/>
<text x="108.050000" y="122.000000" font-family="Verdana" font-size="7" text-anchor="middle" fill="#000000">[1] g</text>
<circle cx="97.150000" cy="110.000000" r="1"/>
<rect x="166.300000" y="82.000000" width="24.000000" height="24.000000" rx="0" ry="0" style="stroke:#000000;fill:#FFFFFF;"/>
<text x="178.300000" y="96.000000" font-family="Verdana" font-size="7" text-anchor="middle" fill="#000000">max</text>
<circle cx="168.300000" cy="84.000000" r="1"/>
<line x1="163.300000" y1="89.000000" x2="166.300000" y2="90.000000"  transform="rotate(0.000000,166.300000,90.000000)" style="stroke: black; stroke-width:0.25;"/>
<line x1="163.300000" y1="91.000000" x2="166.300000" y2="90.000000"  transform="rotate(0.000000,166.300000,90.000000)" style="stroke: black; stroke-width:0.25;"/>
<line x1="163.300000" y1="97.000000" x2="166.300000" y2="98.000000"  transform="rotate(0.000000,166.300000,98.000000)" style="stroke: black; stroke-width:0.25;"/>
<line x1="163.300000" y1="99.000000" x2="166.300000" y2="98.000000"  transform="rotate(0.000000,166.300000,98.000000)" style="stroke: black; stroke-width:0.25;"/>
<rect x="198.300000" y="82.000000" width="25.800000" height="24.000000" rx="0" ry="0" style="stroke:#000000;fill:#FFFFFF;"/>
<text x="211.200000" y="96.000000" font-family="Verdana" font-size="7" text-anchor="middle" fill="#000000">log10</text>
<circle cx="200.300000" cy="84.000000" r="1"/>
<line x1="195.300000" y1="93.000000" x2="198.300000" y2="94.000000"  transform="rotate(0.000000,198.300000,94.000000)" style="stroke: black; stroke-width:0.25;"/>
<line x1="195.300000" y1="95.000000" x2="198.300000" y2="94.000000"  transform="rotate(0.000000,198.300000,94.000000)" style="stroke: black; stroke-width:0.25;"/>
<rect x="240.100000" y="66.000000" width="24.000000" height="24.000000" rx="0" ry="0" style="stroke:#000000;fill:#FFFFFF;"/>
<text x="252.100000" y="80.000000" font-family="Verdana" font-size="7" text-anchor="middle" fill="#000000">*</text>
<circle cx="242.100000" cy="68.000000" r="1"/>
<line x1="237.100000" y1="73.000000" x2="240.100000" y2="74.000000"  transform="rotate(0.000000,240.100000,74.000000)" style="stroke: black; stroke-width:0.25;"/>
<line x1="237.100000" y1="75.000000" x2="240.100000" y2="74.000000"  transform="rotate(0.000000,240.100000,74.000000)" style="stroke: black; stroke-width:0.25;"/>
<line x1="237.100000" y1="81.000000" x2="240.100000" y2="82.000000"  transform="rotate(0.000000,240.100000,82.000000)" style="stroke: black; stroke-width:0.25;"/>
<line x1="237.100000" y1="83.000000" x2="240.100000" y2="82.000000"  transform="rotate(0.000000,240.100000,82.000000)" style="stroke: black; stroke-width:0.25;"/>
<line x1="15.000000" y1="15.000000" x2="15.000000" y2="141.000000"  style="stroke: black; stroke-linecap:round; stroke-width:0.25; stroke-dasharray:3,3;"/>
<line x1="15.000000" y1="141.000000" x2="281.100000" y2="141.000000"  style="stroke: black; stroke-linecap:round; stroke-width:0.25; stroke-dasharray:3,3;"/>
<line x1="281.100000" y1="141.000000" x2="281.100000" y2="15.000000"  style="stroke: black; stroke-linecap:round; stroke-width:0.25; stroke-dasharray:3,3;"/>
<line x1="15.000000" y1="15.000000" x2="20.000000" y2="15.000000"  style="stroke: black; stroke-linecap:round; stroke-width:0.25; stroke-dasharray:3,3;"/>
<line x1="55.475000" y1="15.000000" x2="281.100000" y2="15.000000"  style="stroke: black; stroke-linecap:round; stroke-width:0.25; stroke-dasharray:3,3;"/>
<text x="20.000000" y="17.000000" font-family="Verdana" font-size="7">linear2db</text>
<line x1="283.100000" y1="77.000000" x2="286.100000" y2="78.000000"  transform="rotate(0.000000,286.100000,78.000000)" style="stroke: black; stroke-width:0.25;"/>
<line x1="283.100000" y1="79.000000" x2="286.100000" y2="78.000000"  transform="rotate(0.000000,286.100000,78.000000)" style="stroke: black; stroke-width:0.25;"/>
<line x1="10.000000" y1="78.000000" x2="20.000000" y2="78.000000"  style="stroke:black; stroke-linecap:round; stroke-width:0.25;"/>
<line x1="20.000000" y1="78.000000" x2="24.000000" y2="78.000000"  style="stroke:black; stroke-linecap:round; stroke-width:0.25;"/>
<line x1="24.000000" y1="78.000000" x2="28.000000" y2="78.000000"  style="stroke:black; stroke-linecap:round; stroke-width:0.25;"/>
<line x1="28.000000" y1="78.000000" x2="28.000000" y2="78.000000"  style="stroke:black; stroke-linecap:round; stroke-width:0.25;"/>
<line x1="28.000000" y1="78.000000" x2="32.000000" y2="78.000000"  style="stroke:black; stroke-linecap:round; stroke-width:0.25;"/>
<line x1="120.950000" y1="120.000000" x2="124.950000" y2="120.000000"  style="stroke:black; stroke-linecap:round; stroke-width:0.25;"/>
<line x1="124.950000" y1="120.000000" x2="154.300000" y2="120.000000"  style="stroke:black; stroke-linecap:round; stroke-width:0.25;"/>
<line x1="140.300000" y1="78.000000" x2="144.300000" y2="78.000000"  style="stroke:black; stroke-linecap:round; stroke-width:0.25;"/>
<line x1="144.300000" y1="78.000000" x2="154.300000" y2="78.000000"  style="stroke:black; stroke-linecap:round; stroke-width:0.25;"/>
<line x1="154.300000" y1="78.000000" x2="162.300000" y2="78.000000"  style="stroke:black; stroke-linecap:round; stroke-width:0.25;"/>
<line x1="154.300000" y1="98.000000" x2="162.300000" y2="98.000000"  style="stroke:black; stroke-linecap:round; stroke-width:0.25;"/>
<line x1="154.300000" y1="120.000000" x2="154.300000" y2="98.000000"  style="stroke:black; stroke-linecap:round; stroke-width:0.25;"/>
<line x1="154.300000" y1="120.000000" x2="154.300000" y2="120.000000"  style="stroke:black; stroke-linecap:round; stroke-width:0.25;"/>
<line x1="157.850000" y1="36.000000" x2="161.850000" y2="36.000000"  style="stroke:black; stroke-linecap:round; stroke-width:0.25;"/>
<line x1="161.850000" y1="36.000000" x2="228.100000" y2="36.000000"  style="stroke:black; stroke-linecap:round; stroke-width:0.25;"/>
<line x1="162.300000" y1="78.000000" x2="162.300000" y2="90.000000"  style="stroke:black; stroke-linecap:round; stroke-width:0.25;"/>
<line x1="162.300000" y1="90.000000" x2="162.300000" y2="90.000000"  style="stroke:black; stroke-linecap:round; stroke-width:0.25;"/>
<line x1="162.300000" y1="90.000000" x2="166.300000" y2="90.000000"  style="stroke:black; stroke-linecap:round; stroke-width:0.25;"/>
<line x1="162.300000" y1="98.000000" x2="166.300000" y2="98.000000"  style="stroke:black; stroke-linecap:round; stroke-width:0.25;"/>
<line x1="190.300000" y1="94.000000" x2="194.300000" y2="94.000000"  style="stroke:black; stroke-linecap:round; stroke-width:0.25;"/>
<line x1="194.300000" y1="94.000000" x2="194.300000" y2="94.000000"  style="stroke:black; stroke-linecap:round; stroke-width:0.25;"/>
<line x1="194.300000" y1="94.000000" x2="198.300000" y2="94.000000"  style="stroke:black; stroke-linecap:round; stroke-width:0.25;"/>
<line x1="224.100000" y1="94.000000" x2="228.100000" y2="94.000000"  style="stroke:black; stroke-linecap:round; stroke-width:0.25;"/>
<line x1="228.100000" y1="36.000000" x2="236.100000" y2="36.000000"  style="stroke:black; stroke-linecap:round; stroke-width:0.25;"/>
<line x1="228.100000" y1="82.000000" x2="236.100000" y2="82.000000"  style="stroke:black; stroke-linecap:round; stroke-width:0.25;"/>
<line x1="228.100000" y1="94.000000" x2="228.100000" y2="82.000000"  style="stroke:black; stroke-linecap:round; stroke-width:0.25;"/>
<line x1="228.100000" y1="94.000000" x2="228.100000" y2="94.000000"  style="stroke:black; stroke-linecap:round; stroke-width:0.25;"/>
<line x1="236.100000" y1="36.000000" x2="236.100000" y2="74.000000"  style="stroke:black; stroke-linecap:round; stroke-width:0.25;"/>
<line x1="236.100000" y1="74.000000" x2="236.100000" y2="74.000000"  style="stroke:black; stroke-linecap:round; stroke-width:0.25;"/>
<line x1="236.100000" y1="74.000000" x2="240.100000" y2="74.000000"  style="stroke:black; stroke-linecap:round; stroke-width:0.25;"/>
<line x1="236.100000" y1="82.000000" x2="240.100000" y2="82.000000"  style="stroke:black; stroke-linecap:round; stroke-width:0.25;"/>
<line x1="264.100000" y1="78.000000" x2="268.100000" y2="78.000000"  style="stroke:black; stroke-linecap:round; stroke-width:0.25;"/>
<line x1="268.100000" y1="78.000000" x2="268.100000" y2="78.000000"  style="stroke:black; stroke-linecap:round; stroke-width:0.25;"/>
<line x1="268.100000" y1="78.000000" x2="272.100000" y2="78.000000"  style="stroke:black; stroke-linecap:round; stroke-width:0.25;"/>
<line x1="272.100000" y1="78.000000" x2="276.100000" y2="78.000000"  style="stroke:black; stroke-linecap:round; stroke-width:0.25;"/>
<line x1="276.100000" y1="78.000000" x2="286.100000" y2="78.000000"  style="stroke:black; stroke-linecap:round; stroke-width:0.25;"/>
</svg>
